{
	"build_from": {
		"armhf":   "minio/mc:RELEASE.2020-10-03T02-54-56Z-arm",
		"armv7":   "minio/mc:RELEASE.2020-10-03T02-54-56Z-arm",
		"aarch64": "minio/mc:RELEASE.2020-10-03T02-54-56Z-arm64",
		"amd64":   "minio/mc:RELEASE.2020-10-03T02-54-56Z"
	}
}